0;0;0;1
0.049988;0.00093027;0.0372;1
0.099908;0.0037198;0.0744;1
0.14969;0.0083647;0.1117;1
0.19926;0.014859;0.1489;1
0.24856;0.023192;0.1861;1
0.29751;0.033355;0.2233;1
0.34605;0.045331;0.2605;1
0.39412;0.059106;0.2977;1
0.44163;0.074659;0.3349;1
0.48854;0.091969;0.3722;1
0.53477;0.11101;0.4094;1
0.58025;0.13176;0.4466;1
0.62494;0.15419;0.4838;1
0.66876;0.17827;0.521;1
0.71165;0.20396;0.5582;1
0.75356;0.23122;0.5954;1
0.79442;0.26003;0.6327;1
0.83418;0.29034;0.6699;1
0.87279;0.3221;0.7071;1
0.91019;0.35529;0.7443;1
0.94633;0.38983;0.7815;1
0.97844;0.42281;0.8158;1
0.94486;0.38577;0.853;-1
0.91269;0.3475;0.8902;-1
0.88195;0.30806;0.9274;-1
0.85271;0.26751;0.9646;-1
0.82499;0.2259;1.0019;-1
0.79885;0.18328;1.0391;-1
0.7743;0.13973;1.0763;-1
0.7514;0.095284;1.1135;-1
0.73016;0.050021;1.1507;-1
0.71062;0.0039995;1.1879;-1
0.69281;-0.042717;1.2252;-1
0.67675;-0.090064;1.2624;-1
0.66246;-0.13798;1.2996;-1
0.64997;-0.18639;1.3368;-1
0.63928;-0.23523;1.374;-1
0.63042;-0.28443;1.4112;-1
0.62339;-0.33393;1.4484;-1
0.61822;-0.38366;1.4857;-1
0.61489;-0.43355;1.5229;-1
0.61343;-0.48353;1.5601;-1
0.61343;-0.48353;1.5708;-1
0.61343;-0.53353;1.5708;-1
0.61343;-0.58353;1.5708;-1
0.61343;-0.63353;1.5708;-1
0.61343;-0.68353;1.5708;-1
0.61343;-0.73353;1.5708;-1
0.61343;-0.78353;1.5708;-1
0.61343;-0.83353;1.5708;-1
0.61343;-0.88353;1.5708;-1
0.61343;-0.93353;1.5708;-1
0.61343;-0.98353;1.5708;-1
0.61343;-1.0335;1.5708;-1
0.61343;-1.0835;1.5708;-1
0.61343;-1.1335;1.5708;-1
0.61343;-1.1835;1.5708;-1
0.61343;-1.2335;1.5708;-1
0.61343;-1.2835;1.5708;-1
0.61343;-1.3335;1.5708;-1
0.61343;-1.3835;1.5708;-1
0.61343;-1.4335;1.5708;-1
0.61343;-1.4835;1.5708;-1
