0.00E+00;0;-1
-0.04994;-0.00093027;-1
-0.099859;-0.0037198;-1
-0.14964;-0.0083647;-1
-0.19921;-0.014859;-1
-0.24851;-0.023192;-1
-0.29746;-0.033355;-1
-0.34601;-0.045331;-1
-0.39407;-0.059106;-1
-0.44158;-0.074659;-1
-0.48849;-0.091969;-1
-0.53472;-0.11101;-1
-0.58021;-0.13176;-1
-0.62489;-0.15419;-1
-0.66871;-0.17827;-1
-0.7116;-0.20396;-1
-0.75351;-0.23122;-1
-0.79437;-0.26003;-1
-0.83414;-0.29034;-1
-0.87274;-0.3221;-1
-0.91014;-0.35529;-1
-0.94628;-0.38983;-1
-0.97839;-0.42281;-1
-0.94482;-0.38577;1
-0.91264;-0.3475;1
-0.8819;-0.30806;1
-0.85266;-0.26751;1
-0.82495;-0.2259;1
-0.7988;-0.18328;1
-0.77426;-0.13973;1
-0.75135;-0.095284;1
-0.73011;-0.050021;1
-0.71058;-0.0039995;1
-0.69276;0.042717;1
-0.6767;0.090064;1
-0.66241;0.13798;1
-0.64992;0.18639;1
-0.63923;0.23523;1
-0.63037;0.28443;1
-0.62335;0.33393;1
-0.61817;0.38366;1
-0.61484;0.43355;1
-0.61338;0.48353;1
-0.61338;0.48353;1
-0.61338;0.53353;1
-0.61338;0.58353;1
-0.61338;0.63353;1
-0.61338;0.68353;1
-0.61338;0.73353;1
-0.61338;0.78353;1
-0.61338;0.83353;1
-0.61338;0.88353;1
-0.61338;0.93353;1
-0.61338;0.98353;1
