10,3285896685710	9,40000000000000	3,14159265358979
10,2785956514204	9,39933016709689	3,16838757283291
10,2286375262116	9,39732114927719	3,19518249207602
10,1787511591188	9,39397438886448	3,22197741131913
10,1289723647992	9,38929228858088	3,24877233056224
10,0793368806809	9,38327820982202	3,27556724980535
10,0298803413060	9,37593647024384	3,30236216904847
9,98063825274775	9,36727234066284	3,32915708829158
9,93164596711986	9,35729204127200	3,35595200753469
9,88293865719634	9,34600273717519	3,38274692677780
9,83455129116009	9,33341253324314	3,40954184602092
9,78651860749839	9,31953046829476	3,43633676526403
9,73887509006326	9,30436650860793	3,46313168450714
9,69165494331463	9,28793154076451	3,48992660375025
9,64489206776418	9,27023736383453	3,51672152299336
9,59862003563726	9,25129668090540	3,54351644223648
9,55287206677060	9,23112308996203	3,57031136147959
9,50768100476292	9,20973107412448	3,59710628072270
9,46307929339575	9,18713599125020	3,62390119996581
9,41909895334120	9,16335406290822	3,65069611920893
9,37577155917357	9,13840236273332	3,67749103845204
9,33312821670110	9,11229880416840	3,70428595769515
9,29119954063445	9,08506212760400	3,73108087693826
9,25001563260755	9,05671188692410	3,75787579618138
9,23128213239328	9,04326813248227	3,77023270342248
9,27132479960101	9,07320866069851	3,79702762266560
9,31055093495762	9,10421125304109	3,82382254190871
9,34893237705004	9,13625365198191	3,85061746115182
9,38644157089134	9,16931285348999	3,87741238039493
9,42305158770323	9,20336512354662	3,90420729963804
9,45873614424884	9,23838601518460	3,93100221888116
9,49346962170212	9,27435038603935	3,95779713812427
9,52722708404025	9,31123241639922	3,98459205736738
9,55998429594578	9,34900562774207	4,01138697661049
9,59171774020583	9,38764290174492	4,03818189585360
9,62240463459560	9,42711649975278	4,06497681509672
9,65202294823438	9,46739808269302	4,09177173433983
9,68055141740199	9,50845873142059	4,11856665358294
9,70796956080456	9,55026896747986	4,14536157282605
9,73425769427858	9,59279877426790	4,17215649206917
9,75939694492261	9,63601761858416	4,19895141131228
9,78336926464662	9,67989447255098	4,22574633055539
9,80615744312916	9,72439783588932	4,25254124979850
9,82774512017308	9,76949575853353	4,27933616904162
9,84811679745091	9,81515586356915	4,30613108828473
9,86725784963150	9,86134537047706	4,33292600752784
9,88515453487991	9,90803111866744	4,35972092677095
9,90179400472300	9,95517959128657	4,38651584601407
9,91716431327368	10,0027569392794	4,41331076525718
9,93125442580714	10,0507290056907	4,44010568450029
9,94405422668300	10,0990613501871	4,46690060374340
9,95555452660751	10,1477192737826	4,49369552298651
9,96574706923081	10,1966678437499	4,52049044222963
9,97462453707438	10,2458719186997	4,54728536147274
9,98218055678440	10,2952961738091	4,57408028071585
9,98840970370738	10,3449051261825	4,60087519995896
9,99330750578462	10,3946631603256	4,62767011920208
9,99687044676283	10,4445345537146	4,65446503844519
9,99909596871852	10,4944835024423	4,68125995768830
9,99998247389443	10,5444741469225	4,70805487693141
9,99998247389443	10,5444741469225	4,71238898038469
9,99998247389443	10,5944741469225	4,71238898038469
9,99998247389443	10,6444741469225	4,71238898038469
9,99998247389443	10,6944741469225	4,71238898038469
9,99998247389443	10,7444741469225	4,71238898038469
9,99998247389443	10,7944741469225	4,71238898038469
9,99998247389443	10,8444741469225	4,71238898038469
9,99998247389443	10,8944741469225	4,71238898038469
9,99998247389443	10,9444741469225	4,71238898038469
9,99998247389443	10,9944741469225	4,71238898038469
9,99998247389443	11,0444741469225	4,71238898038469
9,99998247389443	11,0944741469225	4,71238898038469
9,99998247389443	11,1444741469225	4,71238898038469
9,99998247389443	11,1944741469225	4,71238898038469
9,99998247389443	11,2444741469225	4,71238898038469
9,99998247389443	11,2944741469225	4,71238898038469
9,99998247389443	11,3444741469225	4,71238898038469
9,99998247389443	11,3944741469225	4,71238898038469
9,99998247389443	11,4444741469225	4,71238898038469
9,99998247389443	11,4944741469225	4,71238898038469
9,99998247389443	11,5444741469225	4,71238898038469
9,99998247389443	11,5944741469225	4,71238898038469
9,99998247389443	11,6444741469225	4,71238898038469
9,99998247389443	11,6944741469225	4,71238898038469