-1.833601510455824118e-03;4.353823281256120545e-03;1.403458172772510670e-02;1.000000000000000000e+00
2.239018476378071276e-02;4.693820387745975542e-03;1.403491812622461796e-02;1.000000000000000000e+00
2.223520656317437838e-01;8.598458622787491512e-03;2.501394510367014809e-02;1.000000000000000000e+00
4.222335398367974557e-01;1.548295349274435816e-02;4.384460665770165827e-02;1.000000000000000000e+00
6.218775911465171946e-01;2.740993033694012412e-02;7.549596872387348556e-02;1.000000000000000000e+00
8.208501557675318416e-01;4.765637516402389251e-02;1.273158921016899203e-01;1.000000000000000000e+00
1.018079540787957038e+00;8.083121027235376510e-02;2.059729099507046912e-01;1.000000000000000000e+00
1.210724837341086824e+00;1.345693691164808747e-01;3.380942608255190773e-01;1.000000000000000000e+00
1.408363160174162410e+00;1.652139991146441278e-01;-3.043602244269488777e-02;1.000000000000000000e+00
1.603771181465800222e+00;1.226029064874089858e-01;-3.989663057109631428e-01;1.000000000000000000e+00
1.428027526448460094e+00;2.180710567844906522e-01;-5.962855643657012372e-01;-1.000000000000000000e+00
1.273249925595101972e+00;3.447355517074113251e-01;-7.753923019452623189e-01;-1.000000000000000000e+00
1.141842354867951492e+00;4.955070687641450755e-01;-9.324349896615926614e-01;-1.000000000000000000e+00
1.029081344428124600e+00;6.606886492281526246e-01;-1.011186246909101305e+00;-1.000000000000000000e+00
9.362591904148260813e-01;8.378440830266367101e-01;-1.165145508923025375e+00;-1.000000000000000000e+00
8.502783719119042516e-01;1.018418995042581709e+00;-1.087674045360523367e+00;-1.000000000000000000e+00
7.843422812598025429e-01;1.207237510950100345e+00;-1.381988437359844113e+00;-1.000000000000000000e+00
7.114465230807381912e-01;1.393479848885107453e+00;-1.013458154091598784e+00;-1.000000000000000000e+00
5.763523147445224204e-01;1.540957151796474633e+00;-6.449278708233305846e-01;-1.000000000000000000e+00
5.350534208852424367e-01;1.569142278477047237e+00;-5.527953000062635347e-01;-1.000000000000000000e+00
4.913365880575829014e-01;1.593408273769193695e+00;-4.606627291891964848e-01;-1.000000000000000000e+00
4.455726402687147369e-01;1.613549303603284857e+00;-3.685301583721294350e-01;-1.000000000000000000e+00
3.981497823507116340e-01;1.629394521374693205e+00;-2.763977124512012051e-01;-1.000000000000000000e+00
3.494702431699771572e-01;1.640809531893800965e+00;-1.842651416341341275e-01;-1.000000000000000000e+00
2.999469568149688570e-01;1.647697500288026307e+00;-9.213257081706706375e-02;-1.000000000000000000e+00
2.500000000000000000e-01;1.649999999999999911e+00;0.000000000000000000e+00;-1.000000000000000000e+00
