8.989865264846796933e-05;2.789795091199937763e-04;-5.847554634833634045e-04;-1.000000000000000000e+00
-1.404933278129362473e-01;6.059647263435449490e-04;-4.067074428229737644e-03;-1.000000000000000000e+00
-3.404916730472482556e-01;1.419539269306373903e-03;-4.068693439393449539e-03;-1.000000000000000000e+00
-5.404885635651375253e-01;2.534789544093962559e-03;-7.083867106354852644e-03;-1.000000000000000000e+00
-7.404793024757960751e-01;4.459458338664004304e-03;-1.216311792034247691e-02;-1.000000000000000000e+00
-9.404524501371124279e-01;7.736684974916475423e-03;-2.061061520761436547e-02;-1.000000000000000000e+00
-1.140376575249423485e+00;1.324524178017946925e-02;-3.448191992109480436e-02;-1.000000000000000000e+00
-1.340167644810727365e+00;2.238463582738830365e-02;-5.694385881548429812e-02;-1.000000000000000000e+00
-1.539608195941809310e+00;3.733343392390162108e-02;-9.268366309730011188e-02;-1.000000000000000000e+00
-1.738161168614182905e+00;6.134836767279441827e-02;-1.480465268486507724e-01;-1.000000000000000000e+00
-1.934599431999409314e+00;9.892507160217614559e-02;-2.299671632884543460e-01;-1.000000000000000000e+00
-2.126472801170848470e+00;1.553574222780129688e-01;-3.421261917460964308e-01;-1.000000000000000000e+00
-2.309839546118055420e+00;2.352112690699237063e-01;-4.793131153458506932e-01;-1.000000000000000000e+00
-2.480116396867497297e+00;3.401197725329524468e-01;-6.250422531518798896e-01;-1.000000000000000000e+00
-2.633780967109986992e+00;4.681322713453353046e-01;-7.641169491573724937e-01;-1.000000000000000000e+00
-2.770058376165637437e+00;6.145169282635999375e-01;-8.781636318782175543e-01;-1.000000000000000000e+00
-2.889437232437203296e+00;7.749809076337110803e-01;-9.841798495911902034e-01;-1.000000000000000000e+00
-2.995195875951152775e+00;9.447310455484981828e-01;-1.043056602533587895e+00;-1.000000000000000000e+00
-3.116305153025262786e+00;1.103893047944128014e+00;-7.976315192941149101e-01;-1.000000000000000000e+00
-3.272456668865953322e+00;1.228859859940885757e+00;-5.522064360549072681e-01;-1.000000000000000000e+00
-3.315809608078551296e+00;1.253770152223971923e+00;-4.908501652450390496e-01;-1.000000000000000000e+00
-3.360608413675802986e+00;1.275975264632145612e+00;-4.294938944351708310e-01;-1.000000000000000000e+00
-3.406684489335315646e+00;1.295391630198823085e+00;-3.681376236253026124e-01;-1.000000000000000000e+00
-3.453864431842362137e+00;1.311946177158247684e+00;-3.067813528154343938e-01;-1.000000000000000000e+00
-3.501970683677464891e+00;1.325576603944584209e+00;-2.454250820055661475e-01;-1.000000000000000000e+00
-3.550822200789361283e+00;1.336231613591971401e+00;-1.840688124296047112e-01;-1.000000000000000000e+00
-3.600235135722979596e+00;1.343871107112225127e+00;-1.227125416197364649e-01;-1.000000000000000000e+00
-3.650023526854523581e+00;1.348466333823977514e+00;-6.135627080986823245e-02;-1.000000000000000000e+00
-3.700000000000000178e+00;1.350000000000000089e+00;0.000000000000000000e+00;-1.000000000000000000e+00
