0;0;0;1
0.05;0;0;1
0.1;0;0;1
0.15;0;0;1
0.20008;0.0038149;0.095592;1
0.24763;0.0095629;0.14683;1
0.29518;0.017671;0.19217;1
0.34272;0.027846;0.23008;1
0.39027;0.039722;0.25946;1
0.43782;0.05287;0.27956;1
0.48537;0.066816;0.28996;1
0.53291;0.081058;0.29044;1
0.58046;0.09508;0.281;1
0.62801;0.10838;0.26183;1
0.67556;0.12047;0.23332;1
0.7231;0.13093;0.1962;1
0.77065;0.13937;0.15152;1
0.8182;0.14548;0.10078;1
0.86575;0.14906;0.045868;1
0.91329;0.14996;-0.010973;1
0.96084;0.14816;-0.067349;1
1.0084;0.14373;-0.1209;1
1.0559;0.13681;-0.16952;1
1.1035;0.12766;-0.21144;1
1.151;0.11662;-0.24536;1
1.1986;0.10407;-0.27034;1
1.2461;0.090479;-0.2858;1
1.2937;0.076327;-0.29143;1
1.3412;0.062127;-0.28713;1
1.3888;0.048391;-0.27296;1
1.4363;0.035615;-0.24922;1
1.4839;0.024259;-0.21645;1
1.5314;0.014733;-0.17553;1
1.579;0.0073802;-0.12772;1
1.6265;0.0024663;-0.074708;1
1.6935;0;0;1
1.743488;0.00093027;0.0372;1
1.793408;0.0037198;0.0744;1
1.84319;0.0083647;0.1117;1
1.89276;0.014859;0.1489;1
1.94206;0.023192;0.1861;1
1.99101;0.033355;0.2233;1
2.03955;0.045331;0.2605;1
2.08762;0.059106;0.2977;1
2.13513;0.074659;0.3349;1
2.18204;0.091969;0.3722;1
2.22827;0.11101;0.4094;1
2.27375;0.13176;0.4466;1
2.31844;0.15419;0.4838;1
2.36226;0.17827;0.521;1
2.40515;0.20396;0.5582;1
2.44706;0.23122;0.5954;1
2.48792;0.26003;0.6327;1
2.52768;0.29034;0.6699;1
2.56629;0.3221;0.7071;1
2.60369;0.35529;0.7443;1
2.63983;0.38983;0.7815;1
2.67194;0.42281;0.8158;1
2.63836;0.38577;0.853;-1
2.60619;0.3475;0.8902;-1
2.57545;0.30806;0.9274;-1
2.54621;0.26751;0.9646;-1
2.51849;0.2259;1.0019;-1
2.49235;0.18328;1.0391;-1
2.4678;0.13973;1.0763;-1
2.4449;0.095284;1.1135;-1
2.42366;0.050021;1.1507;-1
2.40412;0.0039995;1.1879;-1
2.38631;-0.042717;1.2252;-1
2.37025;-0.090064;1.2624;-1
2.35596;-0.13798;1.2996;-1
2.34347;-0.18639;1.3368;-1
2.33278;-0.23523;1.374;-1
2.32392;-0.28443;1.4112;-1
2.31689;-0.33393;1.4484;-1
2.31172;-0.38366;1.4857;-1
2.30839;-0.43355;1.5229;-1
2.30693;-0.48353;1.5601;-1
2.30693;-0.48353;1.5708;-1
2.30693;-0.53353;1.5708;-1
2.30693;-0.58353;1.5708;-1
2.30693;-0.63353;1.5708;-1
2.30693;-0.68353;1.5708;-1
2.30693;-0.73353;1.5708;-1
2.30693;-0.78353;1.5708;-1
