%!PS-Adobe-3.0 EPSF-3.0
%%Creator: (MATLAB, The Mathworks, Inc. Version 9.1.0.441655 \(R2016b\). Operating System: Windows 7)
%%Title: ./bahn.eps
%%CreationDate: 2018-07-16T10:49:57
%%Pages: (atend)
%%BoundingBox:    35    55   747   215
%%LanguageLevel: 3
%%EndComments
%%BeginProlog
%%BeginResource: procset (Apache XML Graphics Std ProcSet) 1.2 0
%%Version: 1.2 0
%%Copyright: (Copyright 2001-2003,2010 The Apache Software Foundation. License terms: http://www.apache.org/licenses/LICENSE-2.0)
/bd{bind def}bind def
/ld{load def}bd
/GR/grestore ld
/M/moveto ld
/LJ/setlinejoin ld
/C/curveto ld
/f/fill ld
/LW/setlinewidth ld
/GC/setgray ld
/t/show ld
/N/newpath ld
/CT/concat ld
/cp/closepath ld
/S/stroke ld
/L/lineto ld
/CC/setcmykcolor ld
/A/ashow ld
/GS/gsave ld
/RC/setrgbcolor ld
/RM/rmoveto ld
/ML/setmiterlimit ld
/re {4 2 roll M
1 index 0 rlineto
0 exch rlineto
neg 0 rlineto
cp } bd
/_ctm matrix def
/_tm matrix def
/BT { _ctm currentmatrix pop matrix _tm copy pop 0 0 moveto } bd
/ET { _ctm setmatrix } bd
/iTm { _ctm setmatrix _tm concat } bd
/Tm { _tm astore pop iTm 0 0 moveto } bd
/ux 0.0 def
/uy 0.0 def
/F {
  /Tp exch def
  /Tf exch def
  Tf findfont Tp scalefont setfont
  /cf Tf def  /cs Tp def
} bd
/ULS {currentpoint /uy exch def /ux exch def} bd
/ULE {
  /Tcx currentpoint pop def
  gsave
  newpath
  cf findfont cs scalefont dup
  /FontMatrix get 0 get /Ts exch def /FontInfo get dup
  /UnderlinePosition get Ts mul /To exch def
  /UnderlineThickness get Ts mul /Tt exch def
  ux uy To add moveto  Tcx uy To add lineto
  Tt setlinewidth stroke
  grestore
} bd
/OLE {
  /Tcx currentpoint pop def
  gsave
  newpath
  cf findfont cs scalefont dup
  /FontMatrix get 0 get /Ts exch def /FontInfo get dup
  /UnderlinePosition get Ts mul /To exch def
  /UnderlineThickness get Ts mul /Tt exch def
  ux uy To add cs add moveto Tcx uy To add cs add lineto
  Tt setlinewidth stroke
  grestore
} bd
/SOE {
  /Tcx currentpoint pop def
  gsave
  newpath
  cf findfont cs scalefont dup
  /FontMatrix get 0 get /Ts exch def /FontInfo get dup
  /UnderlinePosition get Ts mul /To exch def
  /UnderlineThickness get Ts mul /Tt exch def
  ux uy To add cs 10 mul 26 idiv add moveto Tcx uy To add cs 10 mul 26 idiv add lineto
  Tt setlinewidth stroke
  grestore
} bd
/QT {
/Y22 exch store
/X22 exch store
/Y21 exch store
/X21 exch store
currentpoint
/Y21 load 2 mul add 3 div exch
/X21 load 2 mul add 3 div exch
/X21 load 2 mul /X22 load add 3 div
/Y21 load 2 mul /Y22 load add 3 div
/X22 load /Y22 load curveto
} bd
/SSPD {
dup length /d exch dict def
{
/v exch def
/k exch def
currentpagedevice k known {
/cpdv currentpagedevice k get def
v cpdv ne {
/upd false def
/nullv v type /nulltype eq def
/nullcpdv cpdv type /nulltype eq def
nullv nullcpdv or
{
/upd true def
} {
/sametype v type cpdv type eq def
sametype {
v type /arraytype eq {
/vlen v length def
/cpdvlen cpdv length def
vlen cpdvlen eq {
0 1 vlen 1 sub {
/i exch def
/obj v i get def
/cpdobj cpdv i get def
obj cpdobj ne {
/upd true def
exit
} if
} for
} {
/upd true def
} ifelse
} {
v type /dicttype eq {
v {
/dv exch def
/dk exch def
/cpddv cpdv dk get def
dv cpddv ne {
/upd true def
exit
} if
} forall
} {
/upd true def
} ifelse
} ifelse
} if
} ifelse
upd true eq {
d k v put
} if
} if
} if
} forall
d length 0 gt {
d setpagedevice
} if
} bd
/RE { % /NewFontName [NewEncodingArray] /FontName RE -
  findfont dup length dict begin
  {
    1 index /FID ne
    {def} {pop pop} ifelse
  } forall
  /Encoding exch def
  /FontName 1 index def
  currentdict definefont pop
  end
} bind def
%%EndResource
%%BeginResource: procset (Apache XML Graphics EPS ProcSet) 1.0 0
%%Version: 1.0 0
%%Copyright: (Copyright 2002-2003 The Apache Software Foundation. License terms: http://www.apache.org/licenses/LICENSE-2.0)
/BeginEPSF { %def
/b4_Inc_state save def         % Save state for cleanup
/dict_count countdictstack def % Count objects on dict stack
/op_count count 1 sub def      % Count objects on operand stack
userdict begin                 % Push userdict on dict stack
/showpage { } def              % Redefine showpage, { } = null proc
0 setgray 0 setlinecap         % Prepare graphics state
1 setlinewidth 0 setlinejoin
10 setmiterlimit [ ] 0 setdash newpath
/languagelevel where           % If level not equal to 1 then
{pop languagelevel             % set strokeadjust and
1 ne                           % overprint to their defaults.
{false setstrokeadjust false setoverprint
} if
} if
} bd
/EndEPSF { %def
count op_count sub {pop} repeat            % Clean up stacks
countdictstack dict_count sub {end} repeat
b4_Inc_state restore
} bd
%%EndResource
%FOPBeginFontDict
%%IncludeResource: font Courier-Bold
%%IncludeResource: font Helvetica
%%IncludeResource: font Courier-BoldOblique
%%IncludeResource: font Courier-Oblique
%%IncludeResource: font Times-Roman
%%IncludeResource: font Helvetica-BoldOblique
%%IncludeResource: font Helvetica-Bold
%%IncludeResource: font Helvetica-Oblique
%%IncludeResource: font Times-BoldItalic
%%IncludeResource: font Courier
%%IncludeResource: font Times-Italic
%%IncludeResource: font Times-Bold
%%IncludeResource: font Symbol
%%IncludeResource: font ZapfDingbats
%FOPEndFontDict
%%BeginResource: encoding WinAnsiEncoding
/WinAnsiEncoding [
/.notdef /.notdef /.notdef /.notdef /.notdef
/.notdef /.notdef /.notdef /.notdef /.notdef
/.notdef /.notdef /.notdef /.notdef /.notdef
/.notdef /.notdef /.notdef /.notdef /.notdef
/.notdef /.notdef /.notdef /.notdef /.notdef
/.notdef /.notdef /.notdef /.notdef /.notdef
/.notdef /.notdef /space /exclam /quotedbl
/numbersign /dollar /percent /ampersand /quotesingle
/parenleft /parenright /asterisk /plus /comma
/hyphen /period /slash /zero /one
/two /three /four /five /six
/seven /eight /nine /colon /semicolon
/less /equal /greater /question /at
/A /B /C /D /E
/F /G /H /I /J
/K /L /M /N /O
/P /Q /R /S /T
/U /V /W /X /Y
/Z /bracketleft /backslash /bracketright /asciicircum
/underscore /quoteleft /a /b /c
/d /e /f /g /h
/i /j /k /l /m
/n /o /p /q /r
/s /t /u /v /w
/x /y /z /braceleft /bar
/braceright /asciitilde /bullet /Euro /bullet
/quotesinglbase /florin /quotedblbase /ellipsis /dagger
/daggerdbl /circumflex /perthousand /Scaron /guilsinglleft
/OE /bullet /Zcaron /bullet /bullet
/quoteleft /quoteright /quotedblleft /quotedblright /bullet
/endash /emdash /asciitilde /trademark /scaron
/guilsinglright /oe /bullet /zcaron /Ydieresis
/space /exclamdown /cent /sterling /currency
/yen /brokenbar /section /dieresis /copyright
/ordfeminine /guillemotleft /logicalnot /sfthyphen /registered
/macron /degree /plusminus /twosuperior /threesuperior
/acute /mu /paragraph /middot /cedilla
/onesuperior /ordmasculine /guillemotright /onequarter /onehalf
/threequarters /questiondown /Agrave /Aacute /Acircumflex
/Atilde /Adieresis /Aring /AE /Ccedilla
/Egrave /Eacute /Ecircumflex /Edieresis /Igrave
/Iacute /Icircumflex /Idieresis /Eth /Ntilde
/Ograve /Oacute /Ocircumflex /Otilde /Odieresis
/multiply /Oslash /Ugrave /Uacute /Ucircumflex
/Udieresis /Yacute /Thorn /germandbls /agrave
/aacute /acircumflex /atilde /adieresis /aring
/ae /ccedilla /egrave /eacute /ecircumflex
/edieresis /igrave /iacute /icircumflex /idieresis
/eth /ntilde /ograve /oacute /ocircumflex
/otilde /odieresis /divide /oslash /ugrave
/uacute /ucircumflex /udieresis /yacute /thorn
/ydieresis
] def
%%EndResource
%FOPBeginFontReencode
/Courier-Bold findfont
dup length dict begin
  {1 index /FID ne {def} {pop pop} ifelse} forall
  /Encoding WinAnsiEncoding def
  currentdict
end
/Courier-Bold exch definefont pop
/Helvetica findfont
dup length dict begin
  {1 index /FID ne {def} {pop pop} ifelse} forall
  /Encoding WinAnsiEncoding def
  currentdict
end
/Helvetica exch definefont pop
/Courier-BoldOblique findfont
dup length dict begin
  {1 index /FID ne {def} {pop pop} ifelse} forall
  /Encoding WinAnsiEncoding def
  currentdict
end
/Courier-BoldOblique exch definefont pop
/Courier-Oblique findfont
dup length dict begin
  {1 index /FID ne {def} {pop pop} ifelse} forall
  /Encoding WinAnsiEncoding def
  currentdict
end
/Courier-Oblique exch definefont pop
/Times-Roman findfont
dup length dict begin
  {1 index /FID ne {def} {pop pop} ifelse} forall
  /Encoding WinAnsiEncoding def
  currentdict
end
/Times-Roman exch definefont pop
/Helvetica-BoldOblique findfont
dup length dict begin
  {1 index /FID ne {def} {pop pop} ifelse} forall
  /Encoding WinAnsiEncoding def
  currentdict
end
/Helvetica-BoldOblique exch definefont pop
/Helvetica-Bold findfont
dup length dict begin
  {1 index /FID ne {def} {pop pop} ifelse} forall
  /Encoding WinAnsiEncoding def
  currentdict
end
/Helvetica-Bold exch definefont pop
/Helvetica-Oblique findfont
dup length dict begin
  {1 index /FID ne {def} {pop pop} ifelse} forall
  /Encoding WinAnsiEncoding def
  currentdict
end
/Helvetica-Oblique exch definefont pop
/Times-BoldItalic findfont
dup length dict begin
  {1 index /FID ne {def} {pop pop} ifelse} forall
  /Encoding WinAnsiEncoding def
  currentdict
end
/Times-BoldItalic exch definefont pop
/Courier findfont
dup length dict begin
  {1 index /FID ne {def} {pop pop} ifelse} forall
  /Encoding WinAnsiEncoding def
  currentdict
end
/Courier exch definefont pop
/Times-Italic findfont
dup length dict begin
  {1 index /FID ne {def} {pop pop} ifelse} forall
  /Encoding WinAnsiEncoding def
  currentdict
end
/Times-Italic exch definefont pop
/Times-Bold findfont
dup length dict begin
  {1 index /FID ne {def} {pop pop} ifelse} forall
  /Encoding WinAnsiEncoding def
  currentdict
end
/Times-Bold exch definefont pop
%FOPEndFontReencode
%%EndProlog
%%Page: 1 1
%%PageBoundingBox: 0 0 815 338
%%BeginPageSetup
[1 0 0 -1 0 338] CT
%%EndPageSetup
GS
[0.60044 0 0 0.60107 0 0.20001] CT
1 GC
N
0 0 1357 562 re
f
GR
GS
[0.60044 0 0 0.60107 0 0.20001] CT
1 GC
N
0 0 1357 562 re
f
GR
GS
[0.60044 0 0 0.60107 0 0.20001] CT
1 GC
N
111 417 M
1243 417 L
1243 205 L
111 205 L
cp
f
GR
GS
[0.60044 0 0 0.60107 0 0.20001] CT
0.149 GC
2 setlinecap
1 LJ
0.833 LW
N
111 417 M
1243 417 L
S
GR
GS
[0.60044 0 0 0.60107 0 0.20001] CT
0.149 GC
2 setlinecap
1 LJ
0.833 LW
N
111 205 M
1243 205 L
S
GR
GS
[0.60044 0 0 0.60107 0 0.20001] CT
0.149 GC
2 setlinecap
1 LJ
0.833 LW
N
111 417 M
111 405.68 L
S
GR
GS
[0.60044 0 0 0.60107 0 0.20001] CT
0.149 GC
2 setlinecap
1 LJ
0.833 LW
N
240.997 417 M
240.997 405.68 L
S
GR
GS
[0.60044 0 0 0.60107 0 0.20001] CT
0.149 GC
2 setlinecap
1 LJ
0.833 LW
N
370.993 417 M
370.993 405.68 L
S
GR
GS
[0.60044 0 0 0.60107 0 0.20001] CT
0.149 GC
2 setlinecap
1 LJ
0.833 LW
N
500.99 417 M
500.99 405.68 L
S
GR
GS
[0.60044 0 0 0.60107 0 0.20001] CT
0.149 GC
2 setlinecap
1 LJ
0.833 LW
N
630.987 417 M
630.987 405.68 L
S
GR
GS
[0.60044 0 0 0.60107 0 0.20001] CT
0.149 GC
2 setlinecap
1 LJ
0.833 LW
N
760.984 417 M
760.984 405.68 L
S
GR
GS
[0.60044 0 0 0.60107 0 0.20001] CT
0.149 GC
2 setlinecap
1 LJ
0.833 LW
N
890.98 417 M
890.98 405.68 L
S
GR
GS
[0.60044 0 0 0.60107 0 0.20001] CT
0.149 GC
2 setlinecap
1 LJ
0.833 LW
N
1020.977 417 M
1020.977 405.68 L
S
GR
GS
[0.60044 0 0 0.60107 0 0.20001] CT
0.149 GC
2 setlinecap
1 LJ
0.833 LW
N
1150.974 417 M
1150.974 405.68 L
S
GR
GS
[0.60044 0 0 0.60107 0 0.20001] CT
0.149 GC
2 setlinecap
1 LJ
0.833 LW
N
111 205 M
111 216.32 L
S
GR
GS
[0.60044 0 0 0.60107 0 0.20001] CT
0.149 GC
2 setlinecap
1 LJ
0.833 LW
N
240.997 205 M
240.997 216.32 L
S
GR
GS
[0.60044 0 0 0.60107 0 0.20001] CT
0.149 GC
2 setlinecap
1 LJ
0.833 LW
N
370.993 205 M
370.993 216.32 L
S
GR
GS
[0.60044 0 0 0.60107 0 0.20001] CT
0.149 GC
2 setlinecap
1 LJ
0.833 LW
N
500.99 205 M
500.99 216.32 L
S
GR
GS
[0.60044 0 0 0.60107 0 0.20001] CT
0.149 GC
2 setlinecap
1 LJ
0.833 LW
N
630.987 205 M
630.987 216.32 L
S
GR
GS
[0.60044 0 0 0.60107 0 0.20001] CT
0.149 GC
2 setlinecap
1 LJ
0.833 LW
N
760.984 205 M
760.984 216.32 L
S
GR
GS
[0.60044 0 0 0.60107 0 0.20001] CT
0.149 GC
2 setlinecap
1 LJ
0.833 LW
N
890.98 205 M
890.98 216.32 L
S
GR
GS
[0.60044 0 0 0.60107 0 0.20001] CT
0.149 GC
2 setlinecap
1 LJ
0.833 LW
N
1020.977 205 M
1020.977 216.32 L
S
GR
GS
[0.60044 0 0 0.60107 0 0.20001] CT
0.149 GC
2 setlinecap
1 LJ
0.833 LW
N
1150.974 205 M
1150.974 216.32 L
S
GR
GS
[0.60044 0 0 0.60107 66.64908 254.85231] CT
0.149 GC
/Helvetica 16.667 F
GS
[1 0 0 1 0 0] CT
-5 18 moveto 
1 -1 scale
(0) t 
GR
GR
GS
[0.60044 0 0 0.60107 144.70459 254.85231] CT
0.149 GC
/Helvetica 16.667 F
GS
[1 0 0 1 0 0] CT
-12 18 moveto 
1 -1 scale
(0.2) t 
GR
GR
GS
[0.60044 0 0 0.60107 222.7601 254.85231] CT
0.149 GC
/Helvetica 16.667 F
GS
[1 0 0 1 0 0] CT
-12 18 moveto 
1 -1 scale
(0.4) t 
GR
GR
GS
[0.60044 0 0 0.60107 300.81561 254.85231] CT
0.149 GC
/Helvetica 16.667 F
GS
[1 0 0 1 0 0] CT
-12 18 moveto 
1 -1 scale
(0.6) t 
GR
GR
GS
[0.60044 0 0 0.60107 378.87111 254.85231] CT
0.149 GC
/Helvetica 16.667 F
GS
[1 0 0 1 0 0] CT
-12 18 moveto 
1 -1 scale
(0.8) t 
GR
GR
GS
[0.60044 0 0 0.60107 456.92661 254.85231] CT
0.149 GC
/Helvetica 16.667 F
GS
[1 0 0 1 0 0] CT
-5 18 moveto 
1 -1 scale
(1) t 
GR
GR
GS
[0.60044 0 0 0.60107 534.98215 254.85231] CT
0.149 GC
/Helvetica 16.667 F
GS
[1 0 0 1 0 0] CT
-12 18 moveto 
1 -1 scale
(1.2) t 
GR
GR
GS
[0.60044 0 0 0.60107 613.03765 254.85231] CT
0.149 GC
/Helvetica 16.667 F
GS
[1 0 0 1 0 0] CT
-12 18 moveto 
1 -1 scale
(1.4) t 
GR
GR
GS
[0.60044 0 0 0.60107 691.09315 254.85231] CT
0.149 GC
/Helvetica 16.667 F
GS
[1 0 0 1 0 0] CT
-12 18 moveto 
1 -1 scale
(1.6) t 
GR
GR
GS
[0.60044 0 0 0.60107 406.49966 269.07759] CT
0.149 GC
/Helvetica 18.333 F
GS
[1 0 0 1 0 0] CT
-19.5 19 moveto 
1 -1 scale
(x [m]) t 
GR
GR
GS
[0.60044 0 0 0.60107 0 0.20001] CT
0.149 GC
2 setlinecap
1 LJ
0.833 LW
N
111 417 M
111 205 L
S
GR
GS
[0.60044 0 0 0.60107 0 0.20001] CT
0.149 GC
2 setlinecap
1 LJ
0.833 LW
N
1243 417 M
1243 205 L
S
GR
GS
[0.60044 0 0 0.60107 0 0.20001] CT
0.149 GC
2 setlinecap
1 LJ
0.833 LW
N
111 379.743 M
122.32 379.743 L
S
GR
GS
[0.60044 0 0 0.60107 0 0.20001] CT
0.149 GC
2 setlinecap
1 LJ
0.833 LW
N
111 310.089 M
122.32 310.089 L
S
GR
GS
[0.60044 0 0 0.60107 0 0.20001] CT
0.149 GC
2 setlinecap
1 LJ
0.833 LW
N
111 240.436 M
122.32 240.436 L
S
GR
GS
[0.60044 0 0 0.60107 0 0.20001] CT
0.149 GC
2 setlinecap
1 LJ
0.833 LW
N
1243 379.743 M
1231.68 379.743 L
S
GR
GS
[0.60044 0 0 0.60107 0 0.20001] CT
0.149 GC
2 setlinecap
1 LJ
0.833 LW
N
1243 310.089 M
1231.68 310.089 L
S
GR
GS
[0.60044 0 0 0.60107 0 0.20001] CT
0.149 GC
2 setlinecap
1 LJ
0.833 LW
N
1243 240.436 M
1231.68 240.436 L
S
GR
GS
[0.60044 0 0 0.60107 62.64613 228.45116] CT
0.149 GC
/Helvetica 16.667 F
GS
[1 0 0 1 0 0] CT
-10 7 moveto 
1 -1 scale
(0) t 
GR
GR
GS
[0.60044 0 0 0.60107 62.64613 186.58464] CT
0.149 GC
/Helvetica 16.667 F
GS
[1 0 0 1 0 0] CT
-24 7 moveto 
1 -1 scale
(0.1) t 
GR
GR
GS
[0.60044 0 0 0.60107 62.64613 144.71813] CT
0.149 GC
/Helvetica 16.667 F
GS
[1 0 0 1 0 0] CT
-24 7 moveto 
1 -1 scale
(0.2) t 
GR
GR
GS
[0 -0.60107 0.60044 0 45.23331 187.13198] CT
0.149 GC
/Helvetica 18.333 F
GS
[1 0 0 1 0 0] CT
-19.5 -4 moveto 
1 -1 scale
(y [m]) t 
GR
GR
GS
[0.60044 0 0 0.60107 0 0.20001] CT
0 0 1 RC
1 LJ
0.833 LW
N
131.939 376.98 M
142.253 379.743 L
131.939 382.506 L
S
GR
GS
[0.60044 0 0 0.60107 0 0.20001] CT
0 0 1 RC
1 LJ
0.833 LW
N
292.292 367.066 M
302.872 368.182 L
293.047 372.532 L
S
GR
GS
[0.60044 0 0 0.60107 0 0.20001] CT
0 0 1 RC
1 LJ
0.833 LW
N
445.811 324.14 M
456.431 323.628 L
447.285 329.435 L
S
GR
GS
[0.60044 0 0 0.60107 0 0.20001] CT
0 0 1 RC
1 LJ
0.833 LW
N
601.038 281.461 M
611.656 282.017 L
602.043 286.881 L
S
GR
GS
[0.60044 0 0 0.60107 0 0.20001] CT
0 0 1 RC
1 LJ
0.833 LW
N
756.596 275.297 M
766.712 278.798 L
756.249 280.811 L
S
GR
GS
[0.60044 0 0 0.60107 0 0.20001] CT
0 0 1 RC
1 LJ
0.833 LW
N
910.938 310.584 M
920.188 316.199 L
909.561 315.91 L
S
GR
GS
[0.60044 0 0 0.60107 0 0.20001] CT
0 0 1 RC
1 LJ
0.833 LW
N
1065.5 357.793 M
1074.859 363.196 L
1064.228 363.148 L
S
GR
GS
[0.60044 0 0 0.60107 0 0.20001] CT
0 0 1 RC
1 LJ
0.833 LW
N
1232.687 376.98 M
1243 379.743 L
1232.687 382.506 L
S
GR
GS
[0.60044 0 0 0.60107 0 0.20001] CT
0 0 1 RC
1 LJ
0.833 LW
N
111 379.743 M
142.253 379.743 L
S
GR
GS
[0.60044 0 0 0.60107 0 0.20001] CT
0 0 1 RC
1 LJ
0.833 LW
N
271.955 373.082 M
302.872 368.182 L
S
GR
GS
[0.60044 0 0 0.60107 0 0.20001] CT
0 0 1 RC
1 LJ
0.833 LW
N
426.483 333.203 M
456.431 323.628 L
S
GR
GS
[0.60044 0 0 0.60107 0 0.20001] CT
0 0 1 RC
1 LJ
0.833 LW
N
581.003 288.545 M
611.656 282.017 L
S
GR
GS
[0.60044 0 0 0.60107 0 0.20001] CT
0 0 1 RC
1 LJ
0.833 LW
N
735.53 276.544 M
766.712 278.798 L
S
GR
GS
[0.60044 0 0 0.60107 0 0.20001] CT
0 0 1 RC
1 LJ
0.833 LW
N
890.07 307.254 M
920.188 316.199 L
S
GR
GS
[0.60044 0 0 0.60107 0 0.20001] CT
0 0 1 RC
1 LJ
0.833 LW
N
1044.572 354.936 M
1074.859 363.196 L
S
GR
GS
[0.60044 0 0 0.60107 0 0.20001] CT
0 0 1 RC
1 LJ
0.833 LW
N
1211.747 379.743 M
1243 379.743 L
S
GR
GS
[0.60044 0 0 0.60107 66.64908 228.45116] CT
0 0 1 RC
10.0 ML
0.833 LW
N
-3.536 -3.536 M
3.536 3.536 L
-3.536 3.536 M
3.536 -3.536 L
S
GR
GS
[0.60044 0 0 0.60107 163.29351 224.44751] CT
0 0 1 RC
10.0 ML
0.833 LW
N
-3.536 -3.536 M
3.536 3.536 L
-3.536 3.536 M
3.536 -3.536 L
S
GR
GS
[0.60044 0 0 0.60107 256.07809 200.47763] CT
0 0 1 RC
10.0 ML
0.833 LW
N
-3.536 -3.536 M
3.536 3.536 L
-3.536 3.536 M
3.536 -3.536 L
S
GR
GS
[0.60044 0 0 0.60107 348.85879 173.63533] CT
0 0 1 RC
10.0 ML
0.833 LW
N
-3.536 -3.536 M
3.536 3.536 L
-3.536 3.536 M
3.536 -3.536 L
S
GR
GS
[0.60044 0 0 0.60107 441.64337 166.42173] CT
0 0 1 RC
10.0 ML
0.833 LW
N
-3.536 -3.536 M
3.536 3.536 L
-3.536 3.536 M
3.536 -3.536 L
S
GR
GS
[0.60044 0 0 0.60107 534.43576 184.88067] CT
0 0 1 RC
10.0 ML
0.833 LW
N
-3.536 -3.536 M
3.536 3.536 L
-3.536 3.536 M
3.536 -3.536 L
S
GR
GS
[0.60044 0 0 0.60107 627.20477 213.5404] CT
0 0 1 RC
10.0 ML
0.833 LW
N
-3.536 -3.536 M
3.536 3.536 L
-3.536 3.536 M
3.536 -3.536 L
S
GR
GS
[0.60044 0 0 0.60107 727.58415 228.45116] CT
0 0 1 RC
10.0 ML
0.833 LW
N
-3.536 -3.536 M
3.536 3.536 L
-3.536 3.536 M
3.536 -3.536 L
S
GR
GS
[0.60044 0 0 0.60107 0 0.20001] CT
1 GC
N
1040 278 M
1040 233 L
1204 233 L
1204 278 L
cp
f
GR
GS
[0.60044 0 0 0.60107 652.18799 147.65918] CT
/Helvetica 15 F
GS
[1 0 0 1 0 0] CT
0 6 moveto 
1 -1 scale
(Soll-Orientierung) t 
GR
GR
GS
[0.60044 0 0 0.60107 0 0.20001] CT
0 0 1 RC
1 LJ
0.833 LW
N
1044.992 245.329 M
1082.435 245.329 L
S
GR
GS
[0.60044 0 0 0.60107 0 0.20001] CT
0 0 1 RC
1 LJ
0.833 LW
N
1071.202 248.362 M
1082.435 245.329 L
1071.202 242.296 L
S
GR
GS
[0.60044 0 0 0.60107 652.18799 159.88638] CT
/Helvetica 15 F
GS
[1 0 0 1 0 0] CT
0 6 moveto 
1 -1 scale
(Soll-Punkt) t 
GR
GR
GS
[0.60044 0 0 0.60107 638.69863 159.88638] CT
0 0 1 RC
10.0 ML
0.833 LW
N
-3.536 -3.536 M
3.536 3.536 L
-3.536 3.536 M
3.536 -3.536 L
S
GR
GS
[0.60044 0 0 0.60107 0 0.20001] CT
0.149 GC
10.0 ML
0.833 LW
N
1040 278 M
1040 233 L
1204 233 L
1204 278 L
cp
S
GR
%%Trailer
%%Pages: 1
%%EOF
