0;0;-1
-0.050004;-0.00066983;-1
-0.099962;-0.0026789;-1
-0.14985;-0.0060256;-1
-0.19963;-0.010708;-1
-0.24926;-0.016722;-1
-0.29872;-0.024064;-1
-0.34796;-0.032728;-1
-0.39695;-0.042708;-1
-0.44566;-0.053997;-1
-0.49405;-0.066587;-1
-0.54208;-0.08047;-1
-0.58972;-0.095633;-1
-0.63695;-0.11207;-1
-0.68371;-0.12976;-1
-0.72998;-0.1487;-1
-0.77573;-0.16888;-1
-0.82092;-0.19027;-1
-0.86552;-0.21286;-1
-0.9095;-0.23665;-1
-0.95283;-0.2616;-1
-0.99547;-0.2877;-1
-1.0374;-0.31494;-1
-1.0786;-0.34329;-1
-1.0973;-0.35673;-1
-1.0573;-0.32679;1
-1.018;-0.29579;1
-0.97967;-0.26375;1
-0.94216;-0.23069;1
-0.90555;-0.19663;1
-0.86986;-0.16161;1
-0.83513;-0.12565;1
-0.80137;-0.088768;1
-0.76862;-0.050994;1
-0.73688;-0.012357;1
-0.7062;0.027116;1
-0.67658;0.067398;1
-0.64805;0.10846;1
-0.62063;0.15027;1
-0.59434;0.1928;1
-0.5692;0.23602;1
-0.54523;0.27989;1
-0.52244;0.3244;1
-0.50085;0.3695;1
-0.48048;0.41516;1
-0.46134;0.46135;1
-0.44345;0.50803;1
-0.42681;0.55518;1
-0.41144;0.60276;1
-0.39735;0.65073;1
-0.38455;0.69906;1
-0.37305;0.74772;1
-0.36285;0.79667;1
-0.35398;0.84587;1
-0.34642;0.8953;1
-0.34019;0.94491;1
-0.33529;0.99466;1
-0.33173;1.0445;1
-0.3295;1.0945;1
-0.32862;1.1445;1
-0.32862;1.1445;1
-0.32862;1.1945;1
-0.32862;1.2445;1
-0.32862;1.2945;1
-0.32862;1.3445;1
-0.32862;1.3945;1
-0.32862;1.4445;1
-0.32862;1.4945;1
-0.32862;1.5445;1
-0.32862;1.5945;1
-0.32862;1.6445;1
-0.32862;1.6945;1
-0.32862;1.7445;1
-0.32862;1.7945;1
-0.32862;1.8445;1
-0.32862;1.8945;1
-0.32862;1.9445;1
-0.32862;1.9945;1
-0.32862;2.0445;1
-0.32862;2.0945;1
-0.32862;2.1445;1
-0.32862;2.1945;1
-0.32862;2.2445;1
-0.32862;2.2945;1
