3.10E-06;1.55E-04;-6.54E-04;-1.00E+00
-1.14E-01;2.31E-04;-6.64E-04;-1.00E+00
-3.14E-01;7.29E-04;-4.32E-03;-1.00E+00
-5.14E-01;1.61E-03;-4.52E-03;-1.00E+00
-7.14E-01;2.84E-03;-7.77E-03;-1.00E+00
-9.14E-01;4.94E-03;-1.32E-02;-1.00E+00
-1.11E+00;8.47E-03;-2.21E-02;-1.00E+00
-1.31E+00;1.43E-02;-3.66E-02;-1.00E+00
-1.51E+00;2.40E-02;-5.99E-02;-1.00E+00
-1.71E+00;3.96E-02;-9.67E-02;-1.00E+00
-1.91E+00;6.46E-02;-1.53E-01;-1.00E+00
-2.11E+00;1.03E-01;-2.36E-01;-1.00E+00
-2.30E+00;1.61E-01;-3.48E-01;-1.00E+00
-2.48E+00;2.41E-01;-4.83E-01;-1.00E+00
-2.65E+00;3.47E-01;-6.31E-01;-1.00E+00
-2.81E+00;4.75E-01;-7.58E-01;-1.00E+00
-2.94E+00;6.22E-01;-8.97E-01;-1.00E+00
-3.06E+00;7.82E-01;-9.42E-01;-1.00E+00
-3.17E+00;9.53E-01;-1.12E+00;-1.00E+00
-3.27E+00;1.12E+00;-9.28E-01;-1.00E+00
-3.40E+00;1.27E+00;-7.36E-01;-1.00E+00
-3.44E+00;1.30E+00;-6.88E-01;-1.00E+00
-3.48E+00;1.34E+00;-6.40E-01;-1.00E+00
-3.52E+00;1.36E+00;-5.93E-01;-1.00E+00
-3.52E+00;1.36E+00;-5.90E-01;1.00E+00
-3.48E+00;1.34E+00;-5.42E-01;1.00E+00
-3.43E+00;1.31E+00;-4.95E-01;1.00E+00
-3.39E+00;1.29E+00;-4.47E-01;1.00E+00
-3.34E+00;1.27E+00;-3.99E-01;1.00E+00
-3.35E+00;1.27E+00;-3.98E-01;-1.00E+00
-3.35E+00;1.27E+00;-3.97E-01;-1.00E+00
-3.35E+00;1.27E+00;-3.96E-01;-1.00E+00
-3.35E+00;1.27E+00;-3.95E-01;-1.00E+00
-3.35E+00;1.27E+00;-3.94E-01;-1.00E+00
-3.35E+00;1.27E+00;-3.93E-01;-1.00E+00
-3.36E+00;1.27E+00;-3.83E-01;-1.00E+00
-3.41E+00;1.29E+00;-3.35E-01;-1.00E+00
-3.45E+00;1.31E+00;-2.87E-01;-1.00E+00
-3.50E+00;1.32E+00;-2.39E-01;-1.00E+00
-3.55E+00;1.33E+00;-1.92E-01;-1.00E+00
-3.60E+00;1.34E+00;-1.44E-01;-1.00E+00
-3.65E+00;1.35E+00;-9.58E-02;-1.00E+00
-3.70E+00;1.35E+00;-4.79E-02;-1.00E+00
-3.75E+00;1.35E+00;0.00E+00;-1.00E+00
