0.00E+00;0;0
-0.04994;-0.00093027;0.037215
-0.099859;-0.0037198;0.07443
-0.14964;-0.0083647;0.11165
-0.19921;-0.014859;0.14886
-0.24851;-0.023192;0.18608
-0.29746;-0.033355;0.22329
-0.34601;-0.045331;0.26051
-0.39407;-0.059106;0.29772
-0.44158;-0.074659;0.33494
-0.48849;-0.091969;0.37215
-0.53472;-0.11101;0.40937
-0.58021;-0.13176;0.44658
-0.62489;-0.15419;0.4838
-0.66871;-0.17827;0.52101
-0.7116;-0.20396;0.55823
-0.75351;-0.23122;0.59544
-0.79437;-0.26003;0.63266
-0.83414;-0.29034;0.66987
-0.87274;-0.3221;0.70709
-0.91014;-0.35529;0.7443
-0.94628;-0.38983;0.78152
-0.97839;-0.42281;0.81578
-0.94482;-0.38577;0.85299
-0.91264;-0.3475;0.89021
-0.8819;-0.30806;0.92742
-0.85266;-0.26751;0.96464
-0.82495;-0.2259;1.0019
-0.7988;-0.18328;1.0391
-0.77426;-0.13973;1.0763
-0.75135;-0.095284;1.1135
-0.73011;-0.050021;1.1507
-0.71058;-0.0039995;1.1879
-0.69276;0.042717;1.2251
-0.6767;0.090064;1.2624
-0.66241;0.13798;1.2996
-0.64992;0.18639;1.3368
-0.63923;0.23523;1.374
-0.63037;0.28443;1.4112
-0.62335;0.33393;1.4484
-0.61817;0.38366;1.4857
-0.61484;0.43355;1.5229
-0.61338;0.48353;1.5601
-0.61338;0.48353;1.5708
-0.61338;0.53353;1.5708
-0.61338;0.58353;1.5708
-0.61338;0.63353;1.5708
-0.61338;0.68353;1.5708
-0.61338;0.73353;1.5708
-0.61338;0.78353;1.5708
-0.61338;0.83353;1.5708
-0.61338;0.88353;1.5708
-0.61338;0.93353;1.5708
-0.61338;0.98353;1.5708
