2.707366180198453431e+00;9.795085717014450077e-01;7.576500920806888972e-03;0.000000000000000000e+00;1.000000000000000021e-02;-1.000000000000000000e+00
2.697366467213911267e+00;9.794328074170959297e-01;7.576500920806888972e-03;9.578164059636902206e-01;4.382782322709008471e-02;-1.000000000000000000e+00
2.741176409540437842e+00;9.806846229672031567e-01;4.955550904539025858e-02;-2.469350299904793100e-01;1.702195144168822671e-01;1.000000000000000000e+00
2.571380601548065581e+00;9.686818450996986796e-01;9.158866994288790420e-02;-3.325636967039765080e-01;2.000000000000000111e-01;-1.000000000000000000e+00
2.372937206555771894e+00;9.437776489887502729e-01;1.581014092836832141e-01;-5.076571774873072096e-01;2.000000000000000111e-01;-1.000000000000000000e+00
2.177283917424560400e+00;9.023072926828464846e-01;2.596328447811446782e-01;-7.282286239743693823e-01;2.000000000000000111e-01;-1.000000000000000000e+00
1.988235170027458310e+00;8.370342422900031165e-01;4.052785695760185991e-01;-8.469303611675141896e-01;2.000000000000000111e-01;-1.000000000000000000e+00
1.811765925757359508e+00;7.429140753397677210e-01;5.746646418095214814e-01;-4.790341870676597669e-01;1.999999999999991507e-01;-1.000000000000000000e+00
1.649289197534948181e+00;6.262894090545416681e-01;6.704714792230530573e-01;9.578164059476209635e-01;1.999999999995327182e-01;-1.000000000000000000e+00
1.481417009815878760e+00;5.175745131560189893e-01;4.789081980339764399e-01;9.578164059634298733e-01;1.999999999999788336e-01;-1.000000000000000000e+00
1.295916930955700375e+00;4.428100781427108390e-01;2.873449168413107491e-01;9.578163501273248004e-01;4.999999823763570661e-02;-1.000000000000000000e+00
1.247641410253776728e+00;4.297918630299656373e-01;2.394541010229658262e-01;9.578164015598356062e-01;4.999999986800669066e-02;-1.000000000000000000e+00
1.198798023388696343e+00;4.190996440671517220e-01;1.915632810713994161e-01;9.578164043494821200e-01;4.999999998014936775e-02;-1.000000000000000000e+00
1.149498774191019423e+00;4.107579400110073498e-01;1.436724608729385566e-01;9.578164059636903316e-01;5.000000000000000278e-02;-1.000000000000000000e+00
1.099856710479468536e+00;4.047858791892868235e-01;9.578164057475405113e-02;9.578164057938429732e-01;4.999999999419379310e-02;-1.000000000000000000e+00
1.049985666115325289e+00;4.011971560947830695e-01;4.789082029062317891e-02;9.578164058683906745e-01;4.999999999708049092e-02;-1.000000000000000000e+00
1.000000000000000000e+00;4.000000000000000222e-01;0.000000000000000000e+00;0.000000000000000000e+00;0.000000000000000000e+00;-1.000000000000000000e+00
