0.00E+00;0.00E+00;1.57E+00;1.00E+00
1.12E-02;1.77E-01;1.36E+00;1.00E+00
7.22E-02;3.67E-01;1.17E+00;1.00E+00
1.68E-01;5.43E-01;9.74E-01;1.00E+00
2.96E-01;6.96E-01;7.82E-01;1.00E+00
4.51E-01;8.23E-01;5.90E-01;1.00E+00
6.27E-01;9.18E-01;3.99E-01;1.00E+00
8.18E-01;9.78E-01;2.07E-01;1.00E+00
1.02E+00;1.00E+00;1.58E-02;1.00E+00
1.1;1;0;1
1.2833;1;0;1
1.4667;1;0;1
1.65;1;0;1
1.8333;1;0;1
2.0167;1;0;1
2.2;1;0;1
2.3833;1;0;1
2.5667;1;0;1
2.75;1;0;1
2.57E+00;9.97E-01;9.16E-02;-1.00E+00
2.37E+00;9.44E-01;1.58E-01;-1.00E+00
2.18E+00;9.02E-01;2.60E-01;-1.00E+00
1.99E+00;8.37E-01;4.05E-01;-1.00E+00
1.81E+00;7.43E-01;5.75E-01;-1.00E+00
1.65E+00;6.26E-01;6.70E-01;-1.00E+00
1.48E+00;5.18E-01;4.79E-01;-1.00E+00
1.30E+00;4.43E-01;2.87E-01;-1.00E+00
1.25E+00;4.30E-01;2.39E-01;-1.00E+00
1.20E+00;4.19E-01;1.92E-01;-1.00E+00
1.15E+00;4.11E-01;1.44E-01;-1.00E+00
1.10E+00;4.05E-01;9.58E-02;-1.00E+00
1.05E+00;4.01E-01;4.79E-02;-1.00E+00
1.00E+00;4.00E-01;0.00E+00;-1.00E+00
